Chapter 7 Chicago Crime Data | Intro To dplyr
…
# This gives us a table of Arrests vs non-Arrests

chi %>% count(Arrest)

## # A tibble: 2 x 2
##   Arrest      n
##   <lgl>   <int>
## 1 FALSE  244210
## 2 TRUE    89931

# And we could see the count of reported crimes according to FBI code

chi %>% count(`FBI Code`) %>% arrange(desc(n))

## # A tibble: 30 x 2
##    `FBI Code`     n
##    <chr>      <int>
##  1 06         73414
##  2 08B        52377
##  3 14         35837
##  4 18         33523
##  5 26         29268
##  6 05         22749
##  7 07         16372
##  8 08A        15261
##  9 03         13428
## 10 11         10884
## # … with 20 more rows
…
7.8 What Types of Crime Do We See ?

Next up lets look at the counts for the most frequently committed types of crimes. This will help us understand what our risks are should we consider living in Chicago. First we can create a table of all the Crime types by using the Primary Type variable.

# Sort the Crime Types From Highest Count to Lowest
chi %>% count(`Primary Type`) %>% arrange(desc(n))

## # A tibble: 30 x 2
##    `Primary Type`          n
##    <chr>               <int>
##  1 THEFT               74003
##  2 BATTERY             60668
##  3 CRIMINAL DAMAGE     35837
##  4 NARCOTICS           35330
##  5 BURGLARY            22769
##  6 ASSAULT             19568
##  7 OTHER OFFENSE       17478
##  8 MOTOR VEHICLE THEFT 16426
##  9 ROBBERY             13440
## 10 DECEPTIVE PRACTICE  12786
## # … with 20 more rows

# Equivalent to 

chi %>% 
  group_by(`Primary Type`) %>% 
  summarize(n=n()) %>%
  arrange(desc(n))

## # A tibble: 30 x 2
##    `Primary Type`          n
##    <chr>               <int>
##  1 THEFT               74003
##  2 BATTERY             60668
##  3 CRIMINAL DAMAGE     35837
##  4 NARCOTICS           35330
##  5 BURGLARY            22769
##  6 ASSAULT             19568
##  7 OTHER OFFENSE       17478
##  8 MOTOR VEHICLE THEFT 16426
##  9 ROBBERY             13440
## 10 DECEPTIVE PRACTICE  12786
## # … with 20 more rows
…
So looks like we have lots of people getting arrested for possession of cannabis of 30 grams or less. Heroin, Crack, and Cocaine arrests are next in line but the bulk of arrests relate to cannabis. Now there are also some arrests relating to Cannabis possession with amounts greater than 30 Grams.

# Most of the > 30GMS cannabis possession happens in the STREET

chi %>% filter(grepl("CANNABIS MORE THAN 30GMS",Description)) %>%
  group_by(`Location Description`) %>% 
  summarize(count=n()) %>%
  arrange(desc(count))

## # A tibble: 37 x 2
##    `Location Description`          count
##    <chr>                           <int>
##  1 STREET                            289
##  2 RESIDENCE                         172
##  3 SIDEWALK                          125
##  4 APARTMENT                         119
##  5 POLICE FACILITY/VEH PARKING LOT    98
##  6 ALLEY                              52
##  7 VEHICLE NON-COMMERCIAL             48
##  8 GOVERNMENT BUILDING/PROPERTY       46
##  9 PARKING LOT/GARAGE(NON.RESID.)     29
## 10 RESIDENCE PORCH/HALLWAY            18
## # … with 27 more rows
…
