Chapter 6 Taking It To The Next Level | Intro To dplyr
…
# This gives us a table of Arrests vs non-Arrests

chi %>% count(Arrest)

## # A tibble: 2 x 2
##   Arrest      n
##   <lgl>   <int>
## 1 FALSE  244210
## 2 TRUE    89931

# And we could see the count of reported crimes according to FBI code

chi %>% count(`FBI Code`) %>% arrange(desc(n))

## # A tibble: 30 x 2
##    `FBI Code`     n
##    <chr>      <int>
##  1 06         73414
##  2 08B        52377
##  3 14         35837
##  4 18         33523
##  5 26         29268
##  6 05         22749
##  7 07         16372
##  8 08A        15261
##  9 03         13428
## 10 11         10884
## # … with 20 more rows
…
